{
  "deploy": [
    {
      "branch": ["alpha", "beta", "master"],
      "service": [
        {
          "image": "hisystems.stub",
          "name": "stub"
        },
        {
          "image": "hisystems.nixos",
          "name": "nixos"
        }
      ]
    }
  ]
}
